https://rozetka.com.ua/recent_recommends/action=getGoodsDetailsJSON/?goods_ids=4322372,36579,9940704,121163,1173155,9770184,8902041,2000567,14606570,9367768,9367796,12178307,313141,288007,6446566,6515878,102010,10509804,233035,10091638,12285778
https://rozetka.com.ua/lazy_load/limit=5;for_recommended=1;action=getTopGoodsJSON;sections=80004;preset=/

https://rozetka.com.ua/notebooks/c80004/filter/goods_block/page=87;view=list/


!!!! - https://rozetka.com.ua/notebooks/c80004/filter/page=45;view=tile/

scrapy crawl

//li[@class='paginator-catalog-l-i pos-fix active']
//li[preceding-sibling::li[@class='paginator-catalog-l-i pos-fix active']][1]
//li[preceding-sibling::li[@class='paginator-catalog-l-i pos-fix active']][1]/a

https://rozetka.com.ua/notebooks/c80004/filter/goods_block/page=2/

How to change request url before making request in scrapy?