{
  "name": "foxtrot",
  "domains": [
    "www.foxtrot.com.ua"
  ],
  "rule": "//li[preceding-sibling::li[@class='current']][1]/a",
  "start_urls": [
    "http://www.foxtrot.com.ua/ru/shop/noutbuki?size=100",
    "http://www.foxtrot.com.ua/ru/shop/mobilnye_telefony.html?size=100",
    "http://www.foxtrot.com.ua/ru/shop/fotoapparaty.html?size=100"
  ],
  "xpathes": {
    "category": "//div[@class='pagename']/h1/text()",
    "product_items": "//div[@class='product-item ']",
    "name": "//a[@class='name detail-link']/text()",
    "link": "//a[@class='name detail-link']/@href",
    "price": "//a[@class='name detail-link']/../div[@class='price']/p[not(@class='old')]"
  }
}