{
  "name": "moyo",
  "domains": [
    "www.moyo.ua"
  ],
  "rule": "//div[@class='pagination']/a[preceding-sibling::a[@class='active']][1]",
  "start_urls": [
    "https://www.moyo.ua/comp-and-periphery/notebooks/",
    "https://www.moyo.ua/telecommunication/smart/",
    "https://www.moyo.ua/foto_video/photo_video/cameras/"
  ],
  "xpathes": {
    "category": "//h1[@class='catalog_title']/text()",
    "product_items": "//div[@class='goodsitem_inner']",
    "name": "//a[@class='goods_title ddd']/text()",
    "link": "//a[@class='goods_title ddd']/@href",
    "price": "//div[@class='goodsprice-amount']/span[@class='bold']/text()"
  }
}